{
  "project_info": {
    "project_number": "859183498268",
    "firebase_url": "https://movesaapp-d1ce6.firebaseio.com",
    "project_id": "movesaapp-d1ce6",
    "storage_bucket": "movesaapp-d1ce6.appspot.com"
  },
  "client": [
    {
      "client_info": {
        "mobilesdk_app_id": "1:859183498268:android:7b5b26af80dc800b",
        "android_client_info": {
          "package_name": "com.companyname.MovesaGarantias"
        }
      },
      "oauth_client": [
        {
          "client_id": "859183498268-159h14rjj6s2p4u55lu8kjcicb1nr6cl.apps.googleusercontent.com",
          "client_type": 3
        }
      ],
      "api_key": [
        {
          "current_key": "AIzaSyBeMAtYSZeIfYw9lN-XkkLAOuRqvs8hSmM"
        }
      ],
      "services": {
        "analytics_service": {
          "status": 1
        },
        "appinvite_service": {
          "status": 1,
          "other_platform_oauth_client": []
        },
        "ads_service": {
          "status": 2
        }
      }
    }
  ],
  "configuration_version": "1"
}